Measures of Deprivation • deprivateR
…
The development version of deprivateR can be accessed from GitHub with remotes:

# install.packages("remotes")
remotes::install_github("pfizer-evgen/deprivateR")

Usage

Calculate Deprivation Indices

The core function in deprivateR is dep_get_index(). This function returns the specified index for the given geography and year:

> dep_get_index(geography = "county", state = "MO", index = "adi", year = 2022)
Using FIPS code '29' for state 'MO'
# A tibble: 115 × 3
   GEOID NAME                         ADI
   <chr> <chr>                      <dbl>
 1 29001 Adair County, Missouri     101. 
 2 29003 Andrew County, Missouri     69.4
 3 29005 Atchison County, Missouri  104. 
 4 29007 Audrain County, Missouri   115. 
 5 29009 Barry County, Missouri     106. 
 6 29011 Barton County, Missouri    118. 
 7 29013 Bates County, Missouri     107. 
 8 29015 Benton County, Missouri    103. 
 9 29017 Bollinger County, Missouri 104. 
10 29019 Boone County, Missouri      68.9
# ℹ 105 more rows
# ℹ Use `print(n = ...)` to see more rows

The index argument can take multiple indicies at once, as can the year argument. This gives users the ability to compare multiple indicies across multiple years:

> dep_get_index(geography = "county", state = "MO", index = c("svi20", "svi20s"), year = c(2021, 2022))
Using FIPS code '29' for state 'MO'
# A tibble: 230 × 5
   GEOID NAME                       YEAR SVI_20 SVI_20S
   <chr> <chr>                     <dbl>  <dbl>   <dbl>
 1 29001 Adair County, Missouri     2021  0.377   0.386
 2 29001 Adair County, Missouri     2022  0.456   0.439
 3 29003 Andrew County, Missouri    2021  0       0    
 4 29003 Andrew County, Missouri    2022  0       0    
 5 29005 Atchison County, Missouri  2021  0.149   0.167
 6 29005 Atchison County, Missouri  2022  0.149   0.167
 7 29007 Audrain County, Missouri   2021  0.746   0.781
 8 29007 Audrain County, Missouri   2022  0.886   0.904
 9 29009 Barry County, Missouri     2021  0.702   0.693
10 29009 Barry County, Missouri     2022  0.702   0.667
# ℹ 220 more rows
# ℹ Use `print(n = ...)` to see more rows

An alternative to dep_get_index() is dep_calc_index(), which provides users with the ability to calculate indicies using pre-downloaded data. The dep_sample_data() function can be used to explore how this function works using sample data from the 2018-2022 5-year American Community Survey for Missouri Counties:

> ndi_m <- dep_sample_data(index = "ndi_m")
> dep_calc_index(ndi_m, geography = "county", index = "ndi_m", year = 2022)
Warning: The proportion of variance explained by PC1 is less than 0.50.
# A tibble: 115 × 4
   GEOID NAME                        YEAR   NDI_M
   <chr> <chr>                      <dbl>   <dbl>
 1 29001 Adair County, Missouri      2022  0.0193
 2 29003 Andrew County, Missouri     2022 -0.108 
 3 29005 Atchison County, Missouri   2022 -0.0505
 4 29007 Audrain County, Missouri    2022  0.0107
 5 29009 Barry County, Missouri      2022  0.0129
 6 29011 Barton County, Missouri     2022  0.105 
 7 29013 Bates County, Missouri      2022  0.0679
 8 29015 Benton County, Missouri     2022  0.0283
 9 29017 Bollinger County, Missouri  2022  0.0565
10 29019 Boone County, Missouri      2022 -0.0646
# ℹ 105 more rows
# ℹ Use `print(n = ...)` to see more rows
…
