Calculate Deprivation Measures — dep_get_index • deprivateR
…
  dep_get_index(geography = "county", index = "adi", year = 2022)
#> Warning: • You have not set a Census API key. Users without a key are limited to 500
#> queries per day and may experience performance limitations.
#> ℹ For best results, get a Census API key at
#> http://api.census.gov/data/key_signup.html and then supply the key to the
#> `census_api_key()` function to use it throughout your tidycensus session.
#> This warning is displayed once per session.
#> Warning: 
#> The variables C24010_039 and C24010_040 are both present.
#> C24010_039 will be used for "civilian females age 16+ in
#> white-collar occupations", which is incorrect for pre-2010 data.
#> If seeking pre-2010 estimates, remove C24010_039 from dataset.
#> 
#> Single imputation performed
#> # A tibble: 3,144 × 3
#>    GEOID NAME                       ADI
#>    <chr> <chr>                    <dbl>
#>  1 01001 Autauga County, Alabama   88.5
#>  2 01003 Baldwin County, Alabama   84.1
#>  3 01005 Barbour County, Alabama  137. 
#>  4 01007 Bibb County, Alabama     124. 
#>  5 01009 Blount County, Alabama   109. 
#>  6 01011 Bullock County, Alabama  147. 
#>  7 01013 Butler County, Alabama   122. 
#>  8 01015 Calhoun County, Alabama  115. 
#>  9 01017 Chambers County, Alabama 117. 
#> 10 01019 Cherokee County, Alabama 107. 
#> # ℹ 3,134 more rows

  # calculate two forms of SVI for all Missouri ZCTAs
  dep_get_index(geography = "zcta5", index = c("svi20", "svi20s"), year = 2022,
    state = "MO")
#> # A tibble: 33,642 × 3
#>    GEOID SVI_20 SVI_20S
#>    <chr>  <dbl>   <dbl>
#>  1 01001 0.771   0.766 
#>  2 01002 0.676   0.691 
#>  3 01003 0.206   0.211 
#>  4 01005 0.215   0.202 
#>  5 01007 0.362   0.379 
#>  6 01008 0.0468  0.0501
#>  7 01009 0.143   0.154 
#>  8 01010 0.240   0.202 
#>  9 01011 0.361   0.376 
#> 10 01012 0.222   0.147 
#> # ℹ 33,632 more rows

  # calculate ADI and two forms of NDI for all US counties over three years
  # percentiles are returned to ease comparison
  dep_get_index(geography = "county", index = c("adi", "svi14"),
    year = c(2018:2020), return_percentiles = TRUE)
#> 
#> Single imputation performed
#> 
#> Single imputation performed
#> 
#> Single imputation performed
#> # A tibble: 9,427 × 5
#>    GEOID NAME                     YEAR   SVI   ADI
#>    <chr> <chr>                   <int> <dbl> <dbl>
#>  1 01001 Autauga County, Alabama  2018  44.2  28.3
#>  2 01001 Autauga County, Alabama  2019  38.8  31.6
#>  3 01001 Autauga County, Alabama  2020  47.5  35.1
#>  4 01003 Baldwin County, Alabama  2018  22.7  16.6
#>  5 01003 Baldwin County, Alabama  2019  24.1  16.3
#>  6 01003 Baldwin County, Alabama  2020  22.9  15.5
#>  7 01005 Barbour County, Alabama  2018  99.6  96.0
#>  8 01005 Barbour County, Alabama  2019  99.7  97.2
#>  9 01005 Barbour County, Alabama  2020  99.5  97.0
#> 10 01007 Bibb County, Alabama     2018  59.5  65.9
#> # ℹ 9,417 more rows
…
