Calculating Map Breaks — dep_map_breaks • deprivateR
…
    Examples

# prep data
## load sample data
ndi_m <- dep_sample_data(index = "ndi_m")

## calculate NDI with sample data
ndi_m <- dep_calc_index(ndi_m, geography = "county", index = "ndi_m", year = 2022,
  return_percentiles = TRUE)
#> Warning: The proportion of variance explained by PC1 is less than 0.50.

# calculate breaks using a built-in algorithm
dep_map_breaks(ndi_m, var = "NDI_M", new_var = "map_breaks", classes = 5,
  style = "fisher")
#> # A tibble: 115 × 5
#>    GEOID NAME                        YEAR NDI_M map_breaks    
#>    <chr> <chr>                      <dbl> <dbl> <fct>         
#>  1 29001 Adair County, Missouri      2022 63.2  60.10 - 80.26 
#>  2 29003 Andrew County, Missouri     2022  6.14 0.00 - 19.74  
#>  3 29005 Atchison County, Missouri   2022 24.6  19.75 - 39.91 
#>  4 29007 Audrain County, Missouri    2022 58.8  39.92 - 60.09 
#>  5 29009 Barry County, Missouri      2022 59.6  39.92 - 60.09 
#>  6 29011 Barton County, Missouri     2022 92.1  80.27 - 100.00
#>  7 29013 Bates County, Missouri      2022 83.3  80.27 - 100.00
#>  8 29015 Benton County, Missouri     2022 68.4  60.10 - 80.26 
#>  9 29017 Bollinger County, Missouri  2022 78.9  60.10 - 80.26 
#> 10 29019 Boone County, Missouri      2022 14.0  0.00 - 19.74  
#> # ℹ 105 more rows

# use manually specified breaks
## set breaks
breaks <- c(0, 25, 50, 75, max(ndi_m$NDI_M))

## calculate breaks
dep_map_breaks(ndi_m, var = "NDI_M", new_var = "map_breaks", breaks = breaks)
#> # A tibble: 115 × 5
#>    GEOID NAME                        YEAR NDI_M map_breaks    
#>    <chr> <chr>                      <dbl> <dbl> <fct>         
#>  1 29001 Adair County, Missouri      2022 63.2  50.01 - 75.00 
#>  2 29003 Andrew County, Missouri     2022  6.14 0.00 - 25.00  
#>  3 29005 Atchison County, Missouri   2022 24.6  0.00 - 25.00  
#>  4 29007 Audrain County, Missouri    2022 58.8  50.01 - 75.00 
#>  5 29009 Barry County, Missouri      2022 59.6  50.01 - 75.00 
#>  6 29011 Barton County, Missouri     2022 92.1  75.01 - 100.00
#>  7 29013 Bates County, Missouri      2022 83.3  75.01 - 100.00
#>  8 29015 Benton County, Missouri     2022 68.4  50.01 - 75.00 
#>  9 29017 Bollinger County, Missouri  2022 78.9  75.01 - 100.00
#> 10 29019 Boone County, Missouri      2022 14.0  0.00 - 25.00  
#> # ℹ 105 more rows
…
